{
  "name"    : "DarkTheme Demo",

  "include" :
  [
    {
      "path" : "${QOOXDOO_PATH}/tool/data/config/application.json"
    }
  ],

  "export" :
  [
    "api",
    "api-data",
    "build",
    "clean",
    "distclean",
    "fix",
    "info",
    "inspector",
    "lint",
    "migration",
    "pretty",
    "profiling",
    "source",
    "source-all",
    "test",
    "test-source",
    "translation"
  ],

  "let" :
  {
    "APPLICATION"  : "darktheme.demo",
    "QOOXDOO_PATH" : "../../../..",
    "QXTHEME"      : "darktheme.DarkTheme",
    "API_EXCLUDE"  : ["qx.test.*", "${APPLICATION}.theme.*", "${APPLICATION}.test.*"],
    "LOCALES"      : [ "en" ],
    "CACHE"        : "${TMPDIR}/cache",
    "ROOT"         : "."
  },

  "jobs" :
  {
    "libraries" : 
    {
      "library" :
      [
        {
          "manifest" : "../../Manifest.json"
        }
      ]
    }
  }
}
