{
  // IMAGE CLIPPING AND COMBINING JOBS
  "jobs" :
  {
    
    "image-combine" :
    {
      "desc" : "Emenu image combining",

      "let" :
      {
        "RESPATH" : "./source/resource",
        "QXICONTHEME"  : ["Oxygen"]
      },
   
      "cache" :
      {
        // path to your cache folder
        "compile" : "../tmp/cache"
      },

      "combine-images" :
      {
        "images" :
        {
          "${RESPATH}/com/vcollaborate/emenu/images/combined/icons22.png" :
          {
            "prefix": [ "${RESPATH}" ],
            "input" :
            [
              {
                "prefix": [ "${RESPATH}" ],
                "files" :
                [
                  "${RESPATH}/qx/icon/${QXICONTHEME}/22/actions/dialog-ok.png",
                  "${RESPATH}/qx/icon/${QXICONTHEME}/22/actions/dialog-cancel.png",
                  "${RESPATH}/qx/icon/${QXICONTHEME}/22/actions/dialog-cancel-disabled.png",
                  "${RESPATH}/qx/icon/${QXICONTHEME}/22/actions/view-refresh.png",
                  "${RESPATH}/qx/icon/${QXICONTHEME}/22/actions/help-about.png",
                  "${RESPATH}/qx/icon/${QXICONTHEME}/22/places/folder-open.png",
                  "${RESPATH}/qx/icon/${QXICONTHEME}/22/places/folder.png",
                  "${RESPATH}/qx/icon/${QXICONTHEME}/22/apps/internet-feed-reader.png",
                  "${RESPATH}/qx/icon/${QXICONTHEME}/22/actions/process-stop.png"
                ]
              }
            ],
            "layout" : "vertical"
          },
          
          "${RESPATH}/com/vcollaborate/emenu/images/combined/icons16.png" :
          {
            "prefix": [ "${RESPATH}" ],
            "input" :
            [
              {
                "prefix": [ "${RESPATH}" ],
                "files" :
                [
                  "${RESPATH}/qx/icon/${QXICONTHEME}/16/actions/document-new.png",
                  "${RESPATH}/qx/icon/${QXICONTHEME}/16/actions/dialog-apply.png",
                  "${RESPATH}/qx/icon/${QXICONTHEME}/16/apps/preferences-theme.png",
                  "${RESPATH}/qx/icon/${QXICONTHEME}/16/apps/preferences-locale.png",
                  "${RESPATH}/qx/icon/${QXICONTHEME}/16/actions/dialog-cancel.png",
                  "${RESPATH}/qx/icon/${QXICONTHEME}/16/actions/dialog-ok.png"
                ]
              }
            ],
            "layout" : "vertical"
          }
        }
      }
    },
    
    "image-clipping" : {
    	"desc" : "Emenu image combining",

	    "let" :
	    {
	      "RESPATH" : "./source/resource",
	      "QXICONTHEME"  : ["Oxygen"]
	    },
	   
	    "cache" :
	    {
	      // path to your cache folder
	      "compile" : "../tmp/cache"
	    },

   		"slice-images" :
   		{
      		"images" :
      		{
         		// small shadow e.g. for menus
          		"${RESPATH}/com/vcollaborate/emenu/images/shadow-small.png" :
          		{
            		"prefix" : "shadow/shadow-small",
            		"border-width" : 5
          		}
      		}
   		}
    }
  }  
}
